{
 "games":[
  {
    "game_id": 0,
    "player_score": 2065,
    "moves": 105,
    "player_name": "Issam",
    "win_or_loss": "WIN"
  },
  {
    "game_id": 1,
    "player_score": 2110,
    "moves": 113,
    "player_name": "Jef",
    "win_or_loss": "WIN"
  },
  {
    "game_id": 2,
    "player_score": 1040,
    "moves": 62,
    "player_name": "Joseph",
    "win_or_loss": "WIN"
  },
  {
    "game_id": 3,
    "player_score": 610,
    "moves": 34,
    "player_name": "Jef",
    "win_or_loss": "LOSS"
  },
  {
    "game_id": 4,
    "player_score": 580,
    "moves": 29,
    "player_name": "Jef",
    "win_or_loss": "WIN"
  },
  {
    "game_id": 5,
    "player_score": 2815,
    "moves": 126,
    "player_name": "Issam",
    "win_or_loss": "WIN"
  },
  {
    "game_id": 6,
    "player_score": 2425,
    "moves": 116,
    "player_name": "Joseph",
    "win_or_loss": "WIN"
  },
  {
    "game_id": 7,
    "player_score": 580,
    "moves": 35,
    "player_name": "Bob",
    "win_or_loss": "LOSS"
  },
  {
    "game_id": 8,
    "player_score": 610,
    "moves": 43,
    "player_name": "Steve",
    "win_or_loss": "LOSS"
  },
  {
    "game_id": 9,
    "player_score": 540,
    "moves": 32,
    "player_name": "Jessica",
    "win_or_loss": "LOSS"
  },
  {
    "game_id": 10,
    "player_score": 2995,
    "moves": 184,
    "player_name": "Tom",
    "win_or_loss": "WIN"
  },
  {
    "game_id": 11,
    "player_score": 1260,
    "moves": 108,
    "player_name": "Sara",
    "win_or_loss": "WIN"
  },
  {
    "game_id": 12,
    "player_score": 580,
    "moves": 48,
    "player_name": "Felix",
    "win_or_loss": "LOSS"
  }
]
}
